^P:\IBAHN\VISUALSTUDIO PROJECTS\__TEST\RUNUSER_SRC\RUNUSER_SAMPLE_CODE\RUNASEX\STDAFX.CPP
P:\IBAHN\VISUALSTUDIO PROJECTS\__TEST\RUNUSER_SRC\RUNUSER_SAMPLE_CODE\RUNASEX\UNICODEDEBUG\VC141.PDB
P:\IBAHN\VISUALSTUDIO PROJECTS\__TEST\RUNUSER_SRC\RUNUSER_SAMPLE_CODE\RUNASEX\UNICODEDEBUG\VC141.IDB
P:\IBAHN\VISUALSTUDIO PROJECTS\__TEST\RUNUSER_SRC\RUNUSER_SAMPLE_CODE\RUNASEX\UNICODEDEBUG\STDAFX.SBR
